{
  "annotations": {
    "list": [
      {
        "builtIn": 1,
        "datasource": {
          "type": "datasource",
          "uid": "grafana"
        },
        "enable": true,
        "hide": true,
        "iconColor": "rgba(0, 211, 255, 1)",
        "name": "Annotations & Alerts",
        "target": {
          "limit": 100,
          "matchAny": false,
          "tags": [],
          "type": "dashboard"
        },
        "type": "dashboard"
      }
    ]
  },
  "editable": true,
  "fiscalYearStartMonth": 0,
  "graphTooltip": 1,
  "id": 50,
  "iteration": 1710430316000,
  "links": [],
  "liveNow": false,
  "panels": [
    {
      "datasource": {
        "type": "influxdb",
        "uid": "000000001"
      },
      "gridPos": {
        "h": 8,
        "w": 15,
        "x": 0,
        "y": 0
      },
      "id": 16,
      "options": {
        "content": "\n# Drive status dashboard\n\nThis dashboard shows the status of all the tape drives for the various cta instances:\n- *ctaproduction* is THE production tape backend of eosctaatlas, eosctaalice, eosctacms, eosctapublic...\n- *preproduction* is the tape backend of all the preproduction instances: eosctacmspps, eosctapublicpps, eosctaalicepps...\n- *ctaexperimenttest* is a cta instance that is temporarily allocated to specific experiment tests: Atlas data carousel, Alice recalls on RO instance...\n",
        "mode": "markdown"
      },
      "pluginVersion": "8.5.20",
      "transparent": true,
      "type": "text"
    },
    {
      "datasource": {
        "type": "influxdb",
        "uid": "000000011"
      },
      "description": "",
      "fieldConfig": {
        "defaults": {
          "color": {
            "mode": "palette-classic"
          },
          "custom": {
            "hideFrom": {
              "legend": false,
              "tooltip": false,
              "viz": false
            }
          },
          "mappings": []
        },
        "overrides": [
          {
            "matcher": {
              "id": "byName",
              "options": "DOWN_NO_MOUNT"
            },
            "properties": [
              {
                "id": "color",
                "value": {
                  "fixedColor": "dark-red",
                  "mode": "fixed"
                }
              },
              {
                "id": "displayName",
                "value": "DOWN"
              }
            ]
          },
          {
            "matcher": {
              "id": "byName",
              "options": "UP_NO_MOUNT"
            },
            "properties": [
              {
                "id": "displayName",
                "value": "FREE"
              },
              {
                "id": "color",
                "value": {
                  "fixedColor": "semi-dark-green",
                  "mode": "fixed"
                }
              }
            ]
          },
          {
            "matcher": {
              "id": "byName",
              "options": "TRANSFERRING_RETRIEVE"
            },
            "properties": [
              {
                "id": "color",
                "value": {
                  "fixedColor": "semi-dark-blue",
                  "mode": "fixed"
                }
              },
              {
                "id": "displayName",
                "value": "TRANSFERRING RETRIEVE"
              }
            ]
          },
          {
            "matcher": {
              "id": "byName",
              "options": "MOUNTING"
            },
            "properties": [
              {
                "id": "color",
                "value": {
                  "fixedColor": "light-blue",
                  "mode": "fixed"
                }
              }
            ]
          },
          {
            "matcher": {
              "id": "byRegexp",
              "options": "/CLEANING_UP.*/"
            },
            "properties": [
              {
                "id": "displayName",
                "value": "CLEANING_UP"
              }
            ]
          },
          {
            "matcher": {
              "id": "byName",
              "options": "TRANSFERRING_ARCHIVE_FOR_USER"
            },
            "properties": [
              {
                "id": "displayName",
                "value": "TRANSFERRING ARCHIVE_FOR_USER"
              },
              {
                "id": "color",
                "value": {
                  "fixedColor": "semi-dark-purple",
                  "mode": "fixed"
                }
              }
            ]
          },
          {
            "matcher": {
              "id": "byRegexp",
              "options": "/MOUNTING.*/"
            },
            "properties": [
              {
                "id": "displayName",
                "value": "MOUNTING"
              },
              {
                "id": "color",
                "value": {
                  "fixedColor": "light-blue",
                  "mode": "fixed"
                }
              }
            ]
          },
          {
            "matcher": {
              "id": "byRegexp",
              "options": "/UNLOADING.*/"
            },
            "properties": [
              {
                "id": "displayName",
                "value": "UNLOADING"
              },
              {
                "id": "color",
                "value": {
                  "fixedColor": "light-green",
                  "mode": "fixed"
                }
              }
            ]
          },
          {
            "matcher": {
              "id": "byRegexp",
              "options": "/TRANSFERRING_ARCHIVE_FOR_REPACK/"
            },
            "properties": [
              {
                "id": "displayName",
                "value": "TRANSFERRING ARCHIVE_FOR_REPACK"
              },
              {
                "id": "color",
                "value": {
                  "fixedColor": "super-light-purple",
                  "mode": "fixed"
                }
              }
            ]
          },
          {
            "matcher": {
              "id": "byRegexp",
              "options": "/.*true$/"
            },
            "properties": [
              {
                "id": "displayName",
                "value": "LOGICALLIBRARY DISABLED"
              },
              {
                "id": "color",
                "value": {
                  "fixedColor": "#4b4b4b",
                  "mode": "fixed"
                }
              }
            ]
          }
        ]
      },
      "gridPos": {
        "h": 8,
        "w": 9,
        "x": 15,
        "y": 0
      },
      "id": 23,
      "links": [],
      "options": {
        "displayLabels": [
          "percent"
        ],
        "legend": {
          "displayMode": "table",
          "placement": "right",
          "values": [
            "value"
          ]
        },
        "pieType": "pie",
        "reduceOptions": {
          "calcs": [
            "lastNotNull"
          ],
          "fields": "",
          "values": false
        },
        "text": {},
        "tooltip": {
          "mode": "single",
          "sort": "none"
        }
      },
      "pluginVersion": "7.5.5",
      "targets": [
        {
          "alias": "[[tag_driveStatus]]_[[tag_mountType]][[tag_logicalLibraryDisabled]]",
          "datasource": {
            "type": "influxdb",
            "uid": "000000011"
          },
          "groupBy": [
            {
              "params": [
                "$__interval"
              ],
              "type": "time"
            },
            {
              "params": [
                "null"
              ],
              "type": "fill"
            }
          ],
          "measurement": "ctaadmin_dr_ls",
          "orderByTime": "ASC",
          "policy": "default",
          "query": "SELECT count(\"command\") as count FROM \"ctaadmin_dr_ls\" WHERE \"instance\" =~ /^$instance$/ AND time > now()-300s GROUP BY mountType,driveStatus,logicalLibraryDisabled",
          "rawQuery": true,
          "refId": "A",
          "resultFormat": "time_series",
          "select": [
            [
              {
                "params": [
                  "value"
                ],
                "type": "field"
              },
              {
                "params": [],
                "type": "mean"
              }
            ]
          ],
          "tags": []
        }
      ],
      "title": "Drive Status",
      "transformations": [],
      "type": "piechart"
    },
    {
      "datasource": {
        "type": "influxdb",
        "uid": "000000011"
      },
      "description": "Show last status of all non Free drives for the chosen time range and drives in disabled logicalLibraries",
      "fieldConfig": {
        "defaults": {
          "color": {
            "mode": "thresholds"
          },
          "custom": {
            "align": "auto",
            "displayMode": "auto",
            "inspect": false
          },
          "mappings": [],
          "thresholds": {
            "mode": "absolute",
            "steps": [
              {
                "color": "green",
                "value": null
              }
            ]
          }
        },
        "overrides": [
          {
            "matcher": {
              "id": "byName",
              "options": "Time"
            },
            "properties": [
              {
                "id": "displayName",
                "value": "Time"
              },
              {
                "id": "unit",
                "value": "time: YYYY-MM-DD HH:mm:ss"
              },
              {
                "id": "custom.align"
              }
            ]
          },
          {
            "matcher": {
              "id": "byName",
              "options": "sessionTransferSpeed"
            },
            "properties": [
              {
                "id": "displayName",
                "value": "avg  session speed"
              },
              {
                "id": "unit",
                "value": "Bps"
              },
              {
                "id": "decimals",
                "value": 2
              },
              {
                "id": "custom.displayMode",
                "value": "color-background"
              },
              {
                "id": "custom.align"
              },
              {
                "id": "mappings",
                "value": [
                  {
                    "options": {
                      "0": {
                        "color": "transparent",
                        "index": 0,
                        "text": "N/A"
                      }
                    },
                    "type": "value"
                  }
                ]
              },
              {
                "id": "color",
                "value": {
                  "mode": "continuous-RdYlGr"
                }
              },
              {
                "id": "min",
                "value": 0
              },
              {
                "id": "max",
                "value": 350000000
              }
            ]
          },
          {
            "matcher": {
              "id": "byName",
              "options": "driveStatusSince"
            },
            "properties": [
              {
                "id": "displayName",
                "value": "since"
              },
              {
                "id": "unit",
                "value": "s"
              },
              {
                "id": "decimals",
                "value": 2
              },
              {
                "id": "custom.displayMode",
                "value": "color-background-solid"
              },
              {
                "id": "custom.align"
              },
              {
                "id": "color",
                "value": {
                  "mode": "continuous-GrYlRd"
                }
              },
              {
                "id": "min",
                "value": 0
              },
              {
                "id": "max",
                "value": 28800
              }
            ]
          },
          {
            "matcher": {
              "id": "byName",
              "options": "lastUpdate"
            },
            "properties": [
              {
                "id": "custom.width",
                "value": 95
              }
            ]
          },
          {
            "matcher": {
              "id": "byName",
              "options": "mountType"
            },
            "properties": [
              {
                "id": "custom.width",
                "value": 166
              },
              {
                "id": "mappings",
                "value": [
                  {
                    "options": {
                      "ARCHIVE_FOR_REPACK": {
                        "color": "super-light-purple",
                        "index": 2
                      },
                      "ARCHIVE_FOR_USER": {
                        "color": "semi-dark-purple",
                        "index": 3
                      },
                      "NO_MOUNT": {
                        "color": "transparent",
                        "index": 0
                      },
                      "RETRIEVE": {
                        "color": "semi-dark-blue",
                        "index": 1
                      }
                    },
                    "type": "value"
                  }
                ]
              },
              {
                "id": "custom.displayMode",
                "value": "color-background-solid"
              }
            ]
          },
          {
            "matcher": {
              "id": "byName",
              "options": "driveStatus"
            },
            "properties": [
              {
                "id": "custom.displayMode",
                "value": "color-background-solid"
              },
              {
                "id": "mappings",
                "value": [
                  {
                    "options": {
                      "CLEANING_UP": {
                        "color": "light-green",
                        "index": 4
                      },
                      "DOWN": {
                        "color": "red",
                        "index": 0
                      },
                      "MOUNTING": {
                        "color": "light-blue",
                        "index": 3
                      },
                      "TRANSFERRING": {
                        "color": "purple",
                        "index": 2
                      },
                      "UP": {
                        "color": "green",
                        "index": 1
                      }
                    },
                    "type": "value"
                  }
                ]
              }
            ]
          },
          {
            "matcher": {
              "id": "byName",
              "options": "tapepool"
            },
            "properties": [
              {
                "id": "custom.width",
                "value": 132
              }
            ]
          },
          {
            "matcher": {
              "id": "byName",
              "options": "reason"
            },
            "properties": [
              {
                "id": "custom.width",
                "value": 222
              }
            ]
          },
          {
            "matcher": {
              "id": "byName",
              "options": "logicalLibraryDisabled"
            },
            "properties": [
              {
                "id": "color",
                "value": {
                  "fixedColor": "blue",
                  "mode": "fixed"
                }
              },
              {
                "id": "custom.displayMode",
                "value": "color-background-solid"
              },
              {
                "id": "mappings",
                "value": [
                  {
                    "options": {
                      "true": {
                        "color": "red",
                        "index": 0
                      }
                    },
                    "type": "value"
                  },
                  {
                    "options": {
                      "match": "empty",
                      "result": {
                        "color": "green",
                        "index": 1,
                        "text": "false"
                      }
                    },
                    "type": "special"
                  }
                ]
              },
              {
                "id": "custom.width",
                "value": 134
              }
            ]
          }
        ]
      },
      "gridPos": {
        "h": 12,
        "w": 24,
        "x": 0,
        "y": 8
      },
      "hideTimeOverride": false,
      "id": 4,
      "interval": "5m",
      "links": [],
      "options": {
        "footer": {
          "fields": "",
          "reducer": [
            "sum"
          ],
          "show": false
        },
        "showHeader": true,
        "sortBy": [
          {
            "desc": false,
            "displayName": "logicalLibrary"
          }
        ]
      },
      "pluginVersion": "8.5.20",
      "targets": [
        {
          "datasource": {
            "type": "influxdb",
            "uid": "000000011"
          },
          "groupBy": [
            {
              "params": [
                "driveName"
              ],
              "type": "tag"
            },
            {
              "params": [
                "host"
              ],
              "type": "tag"
            },
            {
              "params": [
                "driveStatus"
              ],
              "type": "tag"
            },
            {
              "params": [
                "logicalLibrary"
              ],
              "type": "tag"
            },
            {
              "params": [
                "mountType"
              ],
              "type": "tag"
            }
          ],
          "hide": false,
          "measurement": "ctaadmin_dr_ls",
          "orderByTime": "ASC",
          "policy": "default",
          "query": "SELECT last(\"timeSinceLastUpdate\") AS \"lastUpdate\", \"driveStatusSince\", \"bytesTransferredInSession\"/\"driveStatusSince\" AS sessionTransferSpeed, \"vid\", \"tapepool\", \"reason\", \"comment\" FROM \"ctaadmin_dr_ls\" WHERE (\"instance\" =~ /^$instance$/ AND \"logicalLibrary\" =~ /^$logicalLibrary$/ AND ( \"vo\" =~/^$VO$/ OR \"vo\" = '' ) AND \"time\" > $__to*1000000-330s AND \"time\" < $__to*1000000) AND $timeFilter GROUP BY \"driveName\", \"host\", \"driveStatus\", \"logicalLibrary\", \"logicalLibraryDisabled\", \"vo\", \"mountType\"",
          "rawQuery": true,
          "refId": "A",
          "resultFormat": "table",
          "select": [
            [
              {
                "params": [
                  "timeSinceLastUpdate"
                ],
                "type": "field"
              },
              {
                "params": [],
                "type": "last"
              },
              {
                "params": [
                  "lastUpdate"
                ],
                "type": "alias"
              }
            ],
            [
              {
                "params": [
                  "ctaVersion"
                ],
                "type": "field"
              }
            ],
            [
              {
                "params": [
                  "driveStatusSince"
                ],
                "type": "field"
              }
            ],
            [
              {
                "params": [
                  "tapepool"
                ],
                "type": "field"
              }
            ],
            [
              {
                "params": [
                  "comment"
                ],
                "type": "field"
              }
            ],
            [
              {
                "params": [
                  "reason"
                ],
                "type": "field"
              }
            ]
          ],
          "tags": [
            {
              "condition": "AND",
              "key": "instance",
              "operator": "=~",
              "value": "/^$instance$/"
            },
            {
              "condition": "AND",
              "key": "logicalLibrary",
              "operator": "=~",
              "value": "/^$logicalLibrary$/"
            },
            {
              "condition": "AND",
              "key": "time",
              "operator": ">",
              "value": "now()-330s"
            }
          ]
        }
      ],
      "title": "Current drive status",
      "transformations": [
        {
          "id": "convertFieldType",
          "options": {
            "conversions": [
              {
                "destinationType": "string",
                "targetField": "comment"
              },
              {
                "destinationType": "string",
                "targetField": "logicalLibraryDisabled"
              }
            ],
            "fields": {}
          }
        },
        {
          "id": "filterByValue",
          "options": {
            "filters": [
              {
                "config": {
                  "id": "notEqual",
                  "options": {
                    "value": "UP"
                  }
                },
                "fieldName": "driveStatus"
              },
              {
                "config": {
                  "id": "equal",
                  "options": {
                    "value": "true"
                  }
                },
                "fieldName": "logicalLibraryDisabled"
              }
            ],
            "match": "any",
            "type": "include"
          }
        }
      ],
      "type": "table"
    },
    {
      "datasource": {
        "type": "influxdb",
        "uid": "000000011"
      },
      "description": "There is a color when a drive is busy *TRANSFERRING* a tape: green is fast, red is very slow",
      "fieldConfig": {
        "defaults": {
          "color": {
            "mode": "continuous-RdYlGr"
          },
          "custom": {
            "fillOpacity": 90,
            "lineWidth": 1,
            "spanNulls": false
          },
          "decimals": 2,
          "links": [],
          "mappings": [
            {
              "options": {
                "from": 400000000,
                "result": {
                  "color": "dark-green",
                  "index": 0
                },
                "to": 1000000000
              },
              "type": "range"
            }
          ],
          "max": 400000000,
          "min": 0,
          "thresholds": {
            "mode": "absolute",
            "steps": [
              {
                "color": "red",
                "value": null
              }
            ]
          },
          "unit": "Bps"
        },
        "overrides": []
      },
      "gridPos": {
        "h": 15,
        "w": 24,
        "x": 0,
        "y": 20
      },
      "id": 25,
      "interval": "10m",
      "options": {
        "alignValue": "center",
        "legend": {
          "displayMode": "list",
          "placement": "bottom"
        },
        "mergeValues": true,
        "rowHeight": 0.8,
        "showValue": "never",
        "tooltip": {
          "mode": "none",
          "sort": "none"
        }
      },
      "targets": [
        {
          "alias": "[[tag_driveName]]",
          "datasource": {
            "type": "influxdb",
            "uid": "000000011"
          },
          "groupBy": [
            {
              "params": [
                "1h"
              ],
              "type": "time"
            },
            {
              "params": [
                "driveName"
              ],
              "type": "tag"
            },
            {
              "params": [
                "none"
              ],
              "type": "fill"
            }
          ],
          "hide": true,
          "measurement": "ctaadmin_dr_ls",
          "orderByTime": "ASC",
          "policy": "default",
          "query": "SELECT max(\"bytesTransferredInSession\")/max(\"driveStatusSince\") as transferSpeed FROM \"ctaadmin_dr_ls\" WHERE (\"instance\" =~ /^$instance$/ AND \"logicalLibrary\" =~ /^$logicalLibrary$/ AND \"vo\" =~ /^$VO$/ AND mountType =~ /^ARCHIVE/ AND driveStatus = 'TRANSFERRING') AND $timeFilter GROUP BY time(10m), \"driveName\" fill(null)",
          "rawQuery": true,
          "refId": "A",
          "resultFormat": "time_series",
          "select": [
            [
              {
                "params": [
                  "bytesTransferredInSession"
                ],
                "type": "field"
              },
              {
                "params": [],
                "type": "min"
              }
            ]
          ],
          "tags": [
            {
              "key": "instance",
              "operator": "=~",
              "value": "/^$instance$/"
            },
            {
              "condition": "AND",
              "key": "logicalLibrary",
              "operator": "=~",
              "value": "/^$logicalLibrary$/"
            },
            {
              "condition": "AND",
              "key": "vo",
              "operator": "=~",
              "value": "/^$VO$/"
            }
          ]
        },
        {
          "alias": "[[tag_driveName]]",
          "datasource": {
            "type": "influxdb",
            "uid": "000000011"
          },
          "hide": true,
          "query": "select (lastBytes-firstBytes)/(lastSince-firstSince) as transferSpeed from (select first(bytesTransferredInSession) as firstBytes, last(bytesTransferredInSession) as lastBytes, first(driveStatusSince) as firstSince, last(driveStatusSince) as lastSince, first(sessionId) as firstId, last(sessionId) as lastId, count(sessionId) as count from ctaadmin_dr_ls WHERE (\"instance\" =~ /^$instance$/ AND \"logicalLibrary\" =~ /^$logicalLibrary$/ AND \"vo\" =~ /^$VO$/ AND mountType =~ /^ARCHIVE/ AND driveStatus = 'TRANSFERRING') AND $timeFilter group by time(10m), driveName fill(0)) group by driveName fill(null)",
          "rawQuery": true,
          "refId": "B",
          "resultFormat": "time_series"
        },
        {
          "alias": "[[tag_driveName]]",
          "datasource": {
            "type": "influxdb",
            "uid": "000000011"
          },
          "hide": false,
          "query": "select (last(bytesTransferredInSession)-first(bytesTransferredInSession))/(last(driveStatusSince)-first(driveStatusSince)) as transferSpeed from ctaadmin_dr_ls WHERE (\"instance\" =~ /^$instance$/ AND \"logicalLibrary\" =~ /^$logicalLibrary$/ AND \"vo\" =~ /^$VO$/ AND mountType =~ /^ARCHIVE/ AND driveStatus = 'TRANSFERRING') AND $timeFilter group by time($__interval), driveName",
          "rawQuery": true,
          "refId": "C",
          "resultFormat": "time_series"
        }
      ],
      "title": "Archive transfer speeds",
      "transformations": [],
      "type": "state-timeline"
    },
    {
      "datasource": {
        "type": "influxdb",
        "uid": "000000011"
      },
      "fieldConfig": {
        "defaults": {
          "color": {
            "mode": "palette-classic"
          },
          "custom": {
            "axisLabel": "",
            "axisPlacement": "auto",
            "axisSoftMin": 0,
            "barAlignment": 0,
            "drawStyle": "line",
            "fillOpacity": 0,
            "gradientMode": "none",
            "hideFrom": {
              "legend": false,
              "tooltip": false,
              "viz": false
            },
            "lineInterpolation": "stepBefore",
            "lineWidth": 1,
            "pointSize": 5,
            "scaleDistribution": {
              "type": "linear"
            },
            "showPoints": "never",
            "spanNulls": false,
            "stacking": {
              "group": "A",
              "mode": "none"
            },
            "thresholdsStyle": {
              "mode": "off"
            }
          },
          "mappings": [],
          "min": 0,
          "thresholds": {
            "mode": "absolute",
            "steps": [
              {
                "color": "green"
              },
              {
                "color": "red",
                "value": 80
              }
            ]
          }
        },
        "overrides": [
          {
            "matcher": {
              "id": "byRegexp",
              "options": "/^transferSpeed/"
            },
            "properties": [
              {
                "id": "unit",
                "value": "Bps"
              },
              {
                "id": "custom.axisPlacement",
                "value": "left"
              },
              {
                "id": "custom.fillOpacity",
                "value": 40
              },
              {
                "id": "custom.stacking",
                "value": {
                  "group": "A",
                  "mode": "normal"
                }
              }
            ]
          },
          {
            "matcher": {
              "id": "byRegexp",
              "options": "/^driveNum/"
            },
            "properties": [
              {
                "id": "unit",
                "value": "short"
              },
              {
                "id": "custom.axisPlacement",
                "value": "right"
              },
              {
                "id": "custom.stacking",
                "value": {
                  "group": "B",
                  "mode": "normal"
                }
              },
              {
                "id": "decimals",
                "value": 0
              }
            ]
          },
          {
            "matcher": {
              "id": "byName",
              "options": "transferSpeed ATLAS"
            },
            "properties": [
              {
                "id": "color",
                "value": {
                  "fixedColor": "#a02222",
                  "mode": "fixed"
                }
              }
            ]
          },
          {
            "matcher": {
              "id": "byName",
              "options": "transferSpeed ALICE"
            },
            "properties": [
              {
                "id": "color",
                "value": {
                  "fixedColor": "#321ab3",
                  "mode": "fixed"
                }
              }
            ]
          },
          {
            "matcher": {
              "id": "byName",
              "options": "transferSpeed CMS"
            },
            "properties": [
              {
                "id": "color",
                "value": {
                  "fixedColor": "#379c69",
                  "mode": "fixed"
                }
              }
            ]
          },
          {
            "matcher": {
              "id": "byName",
              "options": "transferSpeed REPACK"
            },
            "properties": [
              {
                "id": "color",
                "value": {
                  "fixedColor": "#969696",
                  "mode": "fixed"
                }
              }
            ]
          }
        ]
      },
      "gridPos": {
        "h": 9,
        "w": 24,
        "x": 0,
        "y": 35
      },
      "id": 31,
      "interval": "10m",
      "maxDataPoints": 300,
      "options": {
        "legend": {
          "calcs": [
            "last"
          ],
          "displayMode": "hidden",
          "placement": "right"
        },
        "tooltip": {
          "mode": "multi",
          "sort": "desc"
        }
      },
      "targets": [
        {
          "alias": "transferSpeed [[tag_vo]]",
          "datasource": {
            "type": "influxdb",
            "uid": "000000011"
          },
          "hide": false,
          "query": "select sum(transferSpeed) as transferSpeed from (select (last(bytesTransferredInSession)-first(bytesTransferredInSession))/(last(driveStatusSince)-first(driveStatusSince)) as transferSpeed from ctaadmin_dr_ls WHERE (\"instance\" =~ /^$instance$/ AND \"logicalLibrary\" =~ /^$logicalLibrary$/ AND \"vo\" =~ /^$VO$/ AND mountType =~ /^ARCHIVE/ AND driveStatus = 'TRANSFERRING') AND $timeFilter group by time($__interval), driveName, vo) group by time($__interval), vo fill(0)",
          "rawQuery": true,
          "refId": "A",
          "resultFormat": "time_series"
        },
        {
          "alias": "driveNum [[tag_vo]]",
          "datasource": {
            "type": "influxdb",
            "uid": "000000011"
          },
          "hide": false,
          "query": "select count(transferSpeed) as driveNum from (select (last(bytesTransferredInSession)-first(bytesTransferredInSession))/(last(driveStatusSince)-first(driveStatusSince)) as transferSpeed from ctaadmin_dr_ls WHERE (\"instance\" =~ /^$instance$/ AND \"logicalLibrary\" =~ /^$logicalLibrary$/ AND \"vo\" =~ /^$VO$/ AND mountType =~ /^ARCHIVE/ AND driveStatus = 'TRANSFERRING') AND $timeFilter group by time($__interval), driveName, vo) group by time($__interval) , vo fill(0)",
          "rawQuery": true,
          "refId": "B",
          "resultFormat": "time_series"
        }
      ],
      "title": "Cumulated archive transferSpeed",
      "transformations": [],
      "type": "timeseries"
    },
    {
      "datasource": {
        "type": "influxdb",
        "uid": "000000011"
      },
      "description": "There is a color when a drive is busy *TRANSFERRING* a tape: green is fast, red is very slow",
      "fieldConfig": {
        "defaults": {
          "color": {
            "mode": "continuous-RdYlGr"
          },
          "custom": {
            "fillOpacity": 90,
            "lineWidth": 1,
            "spanNulls": false
          },
          "decimals": 2,
          "links": [],
          "mappings": [
            {
              "options": {
                "from": 400000000,
                "result": {
                  "color": "dark-green",
                  "index": 0
                },
                "to": 1000000000
              },
              "type": "range"
            }
          ],
          "max": 400000000,
          "min": 0,
          "thresholds": {
            "mode": "absolute",
            "steps": [
              {
                "color": "red"
              }
            ]
          },
          "unit": "Bps"
        },
        "overrides": []
      },
      "gridPos": {
        "h": 16,
        "w": 24,
        "x": 0,
        "y": 44
      },
      "id": 26,
      "interval": "10m",
      "options": {
        "alignValue": "center",
        "legend": {
          "displayMode": "list",
          "placement": "bottom"
        },
        "mergeValues": true,
        "rowHeight": 0.8,
        "showValue": "never",
        "tooltip": {
          "mode": "none",
          "sort": "none"
        }
      },
      "targets": [
        {
          "alias": "[[tag_driveName]]",
          "datasource": {
            "type": "influxdb",
            "uid": "000000011"
          },
          "groupBy": [
            {
              "params": [
                "1h"
              ],
              "type": "time"
            },
            {
              "params": [
                "driveName"
              ],
              "type": "tag"
            },
            {
              "params": [
                "none"
              ],
              "type": "fill"
            }
          ],
          "hide": true,
          "measurement": "ctaadmin_dr_ls",
          "orderByTime": "ASC",
          "policy": "default",
          "query": "SELECT max(\"bytesTransferredInSession\")/max(\"driveStatusSince\") as transferSpeed FROM \"ctaadmin_dr_ls\" WHERE (\"instance\" =~ /^$instance$/ AND \"logicalLibrary\" =~ /^$logicalLibrary$/ AND \"vo\" =~ /^$VO$/ AND mountType =~ /^RETRIEVE/ AND driveStatus = 'TRANSFERRING') AND $timeFilter GROUP BY time(5m), \"driveName\" fill(null)",
          "rawQuery": true,
          "refId": "A",
          "resultFormat": "time_series",
          "select": [
            [
              {
                "params": [
                  "bytesTransferredInSession"
                ],
                "type": "field"
              },
              {
                "params": [],
                "type": "min"
              }
            ]
          ],
          "tags": [
            {
              "key": "instance",
              "operator": "=~",
              "value": "/^$instance$/"
            },
            {
              "condition": "AND",
              "key": "logicalLibrary",
              "operator": "=~",
              "value": "/^$logicalLibrary$/"
            },
            {
              "condition": "AND",
              "key": "vo",
              "operator": "=~",
              "value": "/^$VO$/"
            }
          ]
        },
        {
          "alias": "[[tag_driveName]]",
          "datasource": {
            "type": "influxdb",
            "uid": "000000011"
          },
          "hide": true,
          "query": "select (lastBytes-firstBytes)/(lastSince-firstSince) as transferSpeed from (select first(bytesTransferredInSession) as firstBytes, last(bytesTransferredInSession) as lastBytes, first(driveStatusSince) as firstSince, last(driveStatusSince) as lastSince, first(sessionId) as firstId, last(sessionId) as lastId, count(sessionId) as count from ctaadmin_dr_ls WHERE (\"instance\" =~ /^$instance$/ AND \"logicalLibrary\" =~ /^$logicalLibrary$/ AND \"vo\" =~ /^$VO$/ AND mountType =~ /^RETRIEVE/ AND driveStatus = 'TRANSFERRING') AND $timeFilter group by time(10m), driveName) group by driveName",
          "rawQuery": true,
          "refId": "B",
          "resultFormat": "time_series"
        },
        {
          "alias": "[[tag_driveName]]",
          "datasource": {
            "type": "influxdb",
            "uid": "000000011"
          },
          "groupBy": [
            {
              "params": [
                "$__interval"
              ],
              "type": "time"
            },
            {
              "params": [
                "null"
              ],
              "type": "fill"
            }
          ],
          "hide": false,
          "orderByTime": "ASC",
          "policy": "default",
          "query": "select (last(bytesTransferredInSession)-first(bytesTransferredInSession))/(last(driveStatusSince)-first(driveStatusSince)) as transferSpeed from ctaadmin_dr_ls WHERE (\"instance\" =~ /^$instance$/ AND \"logicalLibrary\" =~ /^$logicalLibrary$/ AND \"vo\" =~ /^$VO$/ AND mountType =~ /^RETRIEVE/ AND driveStatus = 'TRANSFERRING') AND $timeFilter group by time($__interval), driveName",
          "rawQuery": true,
          "refId": "C",
          "resultFormat": "time_series",
          "select": [
            [
              {
                "params": [
                  "value"
                ],
                "type": "field"
              },
              {
                "params": [],
                "type": "mean"
              }
            ]
          ],
          "tags": []
        }
      ],
      "title": "Retrieve transfer speeds",
      "transformations": [],
      "type": "state-timeline"
    },
    {
      "datasource": {
        "type": "influxdb",
        "uid": "000000011"
      },
      "fieldConfig": {
        "defaults": {
          "color": {
            "mode": "palette-classic"
          },
          "custom": {
            "axisLabel": "",
            "axisPlacement": "auto",
            "axisSoftMin": 0,
            "barAlignment": 0,
            "drawStyle": "line",
            "fillOpacity": 0,
            "gradientMode": "none",
            "hideFrom": {
              "legend": false,
              "tooltip": false,
              "viz": false
            },
            "lineInterpolation": "stepBefore",
            "lineWidth": 1,
            "pointSize": 5,
            "scaleDistribution": {
              "type": "linear"
            },
            "showPoints": "never",
            "spanNulls": false,
            "stacking": {
              "group": "A",
              "mode": "none"
            },
            "thresholdsStyle": {
              "mode": "off"
            }
          },
          "mappings": [],
          "min": 0,
          "thresholds": {
            "mode": "absolute",
            "steps": [
              {
                "color": "green"
              },
              {
                "color": "red",
                "value": 80
              }
            ]
          }
        },
        "overrides": [
          {
            "matcher": {
              "id": "byRegexp",
              "options": "/^transferSpeed/"
            },
            "properties": [
              {
                "id": "unit",
                "value": "Bps"
              },
              {
                "id": "custom.fillOpacity",
                "value": 40
              },
              {
                "id": "custom.stacking",
                "value": {
                  "group": "A",
                  "mode": "normal"
                }
              },
              {
                "id": "custom.axisPlacement",
                "value": "left"
              }
            ]
          },
          {
            "matcher": {
              "id": "byRegexp",
              "options": "/^driveNum/"
            },
            "properties": [
              {
                "id": "unit",
                "value": "short"
              },
              {
                "id": "custom.axisPlacement",
                "value": "right"
              },
              {
                "id": "custom.stacking",
                "value": {
                  "group": "B",
                  "mode": "normal"
                }
              },
              {
                "id": "decimals",
                "value": 0
              }
            ]
          },
          {
            "matcher": {
              "id": "byName",
              "options": "transferSpeed REPACK"
            },
            "properties": [
              {
                "id": "color",
                "value": {
                  "fixedColor": "#969696",
                  "mode": "fixed"
                }
              }
            ]
          }
        ]
      },
      "gridPos": {
        "h": 9,
        "w": 24,
        "x": 0,
        "y": 60
      },
      "id": 32,
      "interval": "10m",
      "maxDataPoints": 300,
      "options": {
        "legend": {
          "calcs": [
            "last"
          ],
          "displayMode": "hidden",
          "placement": "bottom"
        },
        "tooltip": {
          "mode": "multi",
          "sort": "desc"
        }
      },
      "targets": [
        {
          "alias": "transferSpeed [[tag_vo]]",
          "datasource": {
            "type": "influxdb",
            "uid": "000000011"
          },
          "hide": false,
          "query": "select sum(transferSpeed) as transferSpeed from (select (last(bytesTransferredInSession)-first(bytesTransferredInSession))/(last(driveStatusSince)-first(driveStatusSince)) as transferSpeed from ctaadmin_dr_ls WHERE (\"instance\" =~ /^$instance$/ AND \"logicalLibrary\" =~ /^$logicalLibrary$/ AND \"vo\" =~ /^$VO$/ AND mountType =~ /^RETRIEVE/ AND driveStatus = 'TRANSFERRING') AND $timeFilter group by time($__interval), driveName, vo) group by time($__interval), vo fill(0)",
          "rawQuery": true,
          "refId": "A",
          "resultFormat": "time_series"
        },
        {
          "alias": "driveNum [[tag_vo]]",
          "datasource": {
            "type": "influxdb",
            "uid": "000000011"
          },
          "hide": false,
          "query": "select count(transferSpeed) as driveNum from (select (last(bytesTransferredInSession)-first(bytesTransferredInSession))/(last(driveStatusSince)-first(driveStatusSince)) as transferSpeed from ctaadmin_dr_ls WHERE (\"instance\" =~ /^$instance$/ AND \"logicalLibrary\" =~ /^$logicalLibrary$/ AND \"vo\" =~ /^$VO$/ AND mountType =~ /^RETRIEVE/ AND driveStatus = 'TRANSFERRING') AND $timeFilter group by time($__interval), driveName, vo) group by time($__interval), vo fill(0)",
          "rawQuery": true,
          "refId": "B",
          "resultFormat": "time_series"
        }
      ],
      "title": "Cumulated retrieve transferSpeed",
      "transformations": [],
      "type": "timeseries"
    },
    {
      "collapsed": false,
      "datasource": {
        "type": "influxdb",
        "uid": "000000001"
      },
      "gridPos": {
        "h": 1,
        "w": 24,
        "x": 0,
        "y": 69
      },
      "id": 14,
      "panels": [],
      "title": "Row title",
      "type": "row"
    },
    {
      "datasource": {
        "type": "influxdb",
        "uid": "000000011"
      },
      "fieldConfig": {
        "defaults": {
          "color": {
            "mode": "thresholds"
          },
          "custom": {
            "fillOpacity": 90,
            "lineWidth": 1,
            "spanNulls": false
          },
          "mappings": [
            {
              "options": {
                "CLEANING_UP": {
                  "color": "super-light-green",
                  "index": 6
                },
                "DOWN": {
                  "color": "red",
                  "index": 2
                },
                "MOUNTING": {
                  "color": "super-light-orange",
                  "index": 4
                },
                "TRANSFERRING": {
                  "color": "semi-dark-orange",
                  "index": 0
                },
                "UNLOADING": {
                  "color": "super-light-green",
                  "index": 3
                },
                "UNMOUNTING": {
                  "color": "super-light-green",
                  "index": 5
                },
                "UP": {
                  "color": "green",
                  "index": 1
                }
              },
              "type": "value"
            }
          ],
          "thresholds": {
            "mode": "absolute",
            "steps": [
              {
                "color": "green"
              }
            ]
          }
        },
        "overrides": []
      },
      "gridPos": {
        "h": 18,
        "w": 24,
        "x": 0,
        "y": 70
      },
      "id": 29,
      "interval": "5m",
      "options": {
        "alignValue": "left",
        "legend": {
          "displayMode": "list",
          "placement": "bottom"
        },
        "mergeValues": true,
        "rowHeight": 1,
        "showValue": "never",
        "tooltip": {
          "mode": "none",
          "sort": "none"
        }
      },
      "targets": [
        {
          "alias": "[[tag_driveName]]",
          "datasource": {
            "type": "influxdb",
            "uid": "000000011"
          },
          "query": "SELECT last(\"driveStatus\") from (SELECT \"driveStatus\", \"mountType\", last(\"command\") FROM \"ctaadmin_dr_ls\" WHERE (\"instance\" =~ /^$instance$/ AND \"logicalLibrary\" =~ /^$logicalLibrary$/) AND $timeFilter GROUP BY \"driveName\" fill(none)) GROUP BY time($__interval), \"driveName\"",
          "rawQuery": true,
          "refId": "A",
          "resultFormat": "time_series"
        }
      ],
      "title": "Tape drive status",
      "type": "state-timeline"
    },
    {
      "aliasColors": {},
      "bars": false,
      "dashLength": 10,
      "dashes": false,
      "datasource": {
        "type": "influxdb",
        "uid": "000000011"
      },
      "description": "",
      "fieldConfig": {
        "defaults": {
          "links": []
        },
        "overrides": []
      },
      "fill": 5,
      "fillGradient": 0,
      "gridPos": {
        "h": 9,
        "w": 12,
        "x": 0,
        "y": 88
      },
      "hiddenSeries": false,
      "id": 2,
      "legend": {
        "avg": false,
        "current": true,
        "max": false,
        "min": false,
        "show": true,
        "total": false,
        "values": true
      },
      "lines": true,
      "linewidth": 1,
      "links": [],
      "nullPointMode": "null",
      "options": {
        "alertThreshold": true
      },
      "percentage": false,
      "pluginVersion": "8.5.20",
      "pointradius": 3,
      "points": false,
      "renderer": "flot",
      "seriesOverrides": [
        {
          "$$hashKey": "object:1095",
          "alias": "/NO_MOUNT/",
          "color": "#56A64B"
        }
      ],
      "spaceLength": 10,
      "stack": true,
      "steppedLine": true,
      "targets": [
        {
          "alias": "[[tag_tapepool]] [[tag_mountType]]",
          "datasource": {
            "type": "influxdb",
            "uid": "000000011"
          },
          "groupBy": [
            {
              "params": [
                "5m"
              ],
              "type": "time"
            },
            {
              "params": [
                "tapepool"
              ],
              "type": "tag"
            },
            {
              "params": [
                "mountType"
              ],
              "type": "tag"
            },
            {
              "params": [
                "0"
              ],
              "type": "fill"
            }
          ],
          "measurement": "ctaadmin_dr_ls",
          "orderByTime": "ASC",
          "policy": "default",
          "refId": "A",
          "resultFormat": "time_series",
          "select": [
            [
              {
                "params": [
                  "command"
                ],
                "type": "field"
              },
              {
                "params": [],
                "type": "count"
              }
            ]
          ],
          "tags": [
            {
              "key": "instance",
              "operator": "=~",
              "value": "/^$instance$/"
            },
            {
              "condition": "AND",
              "key": "logicalLibrary",
              "operator": "=~",
              "value": "/^$logicalLibrary$/"
            },
            {
              "condition": "AND",
              "key": "driveStatus",
              "operator": "!=",
              "value": "DOWN"
            },
            {
              "condition": "AND",
              "key": "mountType",
              "operator": "=",
              "value": "RETRIEVE"
            }
          ]
        },
        {
          "alias": "[[tag_tapepool]] [[tag_mountType]]",
          "datasource": {
            "type": "influxdb",
            "uid": "000000011"
          },
          "groupBy": [
            {
              "params": [
                "5m"
              ],
              "type": "time"
            },
            {
              "params": [
                "tapepool"
              ],
              "type": "tag"
            },
            {
              "params": [
                "mountType"
              ],
              "type": "tag"
            },
            {
              "params": [
                "0"
              ],
              "type": "fill"
            }
          ],
          "hide": false,
          "measurement": "ctaadmin_dr_ls",
          "orderByTime": "ASC",
          "policy": "default",
          "refId": "B",
          "resultFormat": "time_series",
          "select": [
            [
              {
                "params": [
                  "command"
                ],
                "type": "field"
              },
              {
                "params": [],
                "type": "count"
              }
            ]
          ],
          "tags": [
            {
              "key": "instance",
              "operator": "=~",
              "value": "/^$instance$/"
            },
            {
              "condition": "AND",
              "key": "logicalLibrary",
              "operator": "=~",
              "value": "/^$logicalLibrary$/"
            },
            {
              "condition": "AND",
              "key": "driveStatus",
              "operator": "!=",
              "value": "DOWN"
            },
            {
              "condition": "AND",
              "key": "mountType",
              "operator": "=",
              "value": "NO_MOUNT"
            }
          ]
        },
        {
          "alias": "[[tag_tapepool]] [[tag_mountType]]",
          "datasource": {
            "type": "influxdb",
            "uid": "000000011"
          },
          "groupBy": [
            {
              "params": [
                "5m"
              ],
              "type": "time"
            },
            {
              "params": [
                "tapepool"
              ],
              "type": "tag"
            },
            {
              "params": [
                "mountType"
              ],
              "type": "tag"
            },
            {
              "params": [
                "0"
              ],
              "type": "fill"
            }
          ],
          "hide": false,
          "measurement": "ctaadmin_dr_ls",
          "orderByTime": "ASC",
          "policy": "default",
          "refId": "C",
          "resultFormat": "time_series",
          "select": [
            [
              {
                "params": [
                  "command"
                ],
                "type": "field"
              },
              {
                "params": [],
                "type": "count"
              }
            ]
          ],
          "tags": [
            {
              "key": "instance",
              "operator": "=~",
              "value": "/^$instance$/"
            },
            {
              "condition": "AND",
              "key": "logicalLibrary",
              "operator": "=~",
              "value": "/^$logicalLibrary$/"
            },
            {
              "condition": "AND",
              "key": "driveStatus",
              "operator": "!=",
              "value": "DOWN"
            },
            {
              "condition": "AND",
              "key": "mountType",
              "operator": "=~",
              "value": "/^ARCHIVE/"
            }
          ]
        }
      ],
      "thresholds": [],
      "timeRegions": [],
      "title": "Drive usage",
      "tooltip": {
        "shared": true,
        "sort": 2,
        "value_type": "individual"
      },
      "type": "graph",
      "xaxis": {
        "mode": "time",
        "show": true,
        "values": []
      },
      "yaxes": [
        {
          "$$hashKey": "object:201",
          "decimals": -1,
          "format": "short",
          "logBase": 1,
          "show": true
        },
        {
          "$$hashKey": "object:202",
          "format": "short",
          "logBase": 1,
          "show": true
        }
      ],
      "yaxis": {
        "align": false
      }
    },
    {
      "cards": {},
      "color": {
        "cardColor": "#b4ff00",
        "colorScale": "sqrt",
        "colorScheme": "interpolateSpectral",
        "exponent": 0.5,
        "mode": "spectrum"
      },
      "dataFormat": "timeseries",
      "datasource": {
        "type": "influxdb",
        "uid": "000000011"
      },
      "gridPos": {
        "h": 9,
        "w": 12,
        "x": 12,
        "y": 88
      },
      "heatmap": {},
      "hideZeroBuckets": false,
      "highlightCards": true,
      "id": 6,
      "legend": {
        "show": true
      },
      "links": [],
      "reverseYBuckets": false,
      "targets": [
        {
          "alias": "[[tag_driveStatus]]",
          "groupBy": [
            {
              "params": [
                "5m"
              ],
              "type": "time"
            },
            {
              "params": [
                "null"
              ],
              "type": "fill"
            }
          ],
          "measurement": "ctaadmin_dr_ls",
          "orderByTime": "ASC",
          "policy": "default",
          "refId": "A",
          "resultFormat": "time_series",
          "select": [
            [
              {
                "params": [
                  "timeSinceLastUpdate"
                ],
                "type": "field"
              },
              {
                "params": [],
                "type": "max"
              }
            ]
          ],
          "tags": [
            {
              "key": "driveStatus",
              "operator": "!=",
              "value": "DOWN"
            },
            {
              "condition": "AND",
              "key": "instance",
              "operator": "=~",
              "value": "/^$instance$/"
            },
            {
              "condition": "AND",
              "key": "logicalLibrary",
              "operator": "=~",
              "value": "/^$logicalLibrary$/"
            }
          ]
        }
      ],
      "title": "Time since last update",
      "tooltip": {
        "show": true,
        "showHistogram": false
      },
      "type": "heatmap",
      "xAxis": {
        "show": true
      },
      "yAxis": {
        "format": "short",
        "logBase": 1,
        "show": true
      },
      "yBucketBound": "auto"
    },
    {
      "cards": {},
      "color": {
        "cardColor": "#b4ff00",
        "colorScale": "sqrt",
        "colorScheme": "interpolatePlasma",
        "exponent": 0.5,
        "min": 0,
        "mode": "spectrum"
      },
      "dataFormat": "timeseries",
      "datasource": {
        "type": "influxdb",
        "uid": "000000011"
      },
      "description": "Compensated average archival drive speed for sessions longer than 15 minutes, this allows to quickly spot slow tape drives.",
      "gridPos": {
        "h": 8,
        "w": 12,
        "x": 0,
        "y": 97
      },
      "heatmap": {},
      "hideZeroBuckets": false,
      "highlightCards": true,
      "id": 20,
      "interval": "5m",
      "legend": {
        "show": false
      },
      "reverseYBuckets": false,
      "targets": [
        {
          "groupBy": [
            {
              "params": [
                "$__interval"
              ],
              "type": "time"
            },
            {
              "params": [
                "null"
              ],
              "type": "fill"
            }
          ],
          "measurement": "ctaadmin_dr_ls",
          "orderByTime": "ASC",
          "policy": "default",
          "query": "SELECT mean(\"bytesTransferredInSession\")/(mean(\"driveStatusSince\") - 250) FROM \"ctaadmin_dr_ls\" WHERE (\"vo\" =~ /^$VO$/) AND (\"instance\" =~ /^$instance$/) AND logicalLibrary=~/^$logicalLibrary$/ AND (\"mountType\" = 'ARCHIVE_FOR_USER') AND driveStatusSince>900 AND $timeFilter GROUP BY time(5m), driveName",
          "rawQuery": true,
          "refId": "A",
          "resultFormat": "time_series",
          "select": [
            [
              {
                "params": [
                  "bytesTransferredInSession"
                ],
                "type": "field"
              },
              {
                "params": [
                  " /"
                ],
                "type": "math"
              }
            ],
            [
              {
                "params": [
                  "driveStatusSince"
                ],
                "type": "field"
              }
            ]
          ],
          "tags": [
            {
              "key": "mountType",
              "operator": "=",
              "value": "ARCHIVE_FOR_USER"
            }
          ]
        }
      ],
      "title": "Sessions average archival speeds",
      "tooltip": {
        "show": true,
        "showHistogram": false
      },
      "type": "heatmap",
      "xAxis": {
        "show": true
      },
      "yAxis": {
        "format": "Bps",
        "logBase": 1,
        "min": "0",
        "show": true
      },
      "yBucketBound": "auto"
    },
    {
      "cards": {},
      "color": {
        "cardColor": "#b4ff00",
        "colorScale": "sqrt",
        "colorScheme": "interpolatePlasma",
        "exponent": 0.5,
        "min": 0,
        "mode": "spectrum"
      },
      "dataFormat": "timeseries",
      "datasource": {
        "type": "influxdb",
        "uid": "000000011"
      },
      "description": "Average retrieval drive speed for sessions longer than 15 minutes, this allows to quickly spot slower tape drives.",
      "gridPos": {
        "h": 8,
        "w": 12,
        "x": 12,
        "y": 97
      },
      "heatmap": {},
      "hideZeroBuckets": false,
      "highlightCards": true,
      "id": 21,
      "interval": "5m",
      "legend": {
        "show": false
      },
      "reverseYBuckets": false,
      "targets": [
        {
          "groupBy": [
            {
              "params": [
                "$__interval"
              ],
              "type": "time"
            },
            {
              "params": [
                "null"
              ],
              "type": "fill"
            }
          ],
          "measurement": "ctaadmin_dr_ls",
          "orderByTime": "ASC",
          "policy": "default",
          "query": "SELECT mean(\"bytesTransferredInSession\")/mean(\"driveStatusSince\") FROM \"ctaadmin_dr_ls\" WHERE (\"vo\" =~ /^$VO$/) AND (\"instance\" =~ /^$instance$/) AND logicalLibrary=~/^$logicalLibrary$/ AND (\"mountType\" = 'RETRIEVE') AND driveStatusSince>900 AND $timeFilter GROUP BY time(5m), driveName",
          "rawQuery": true,
          "refId": "A",
          "resultFormat": "time_series",
          "select": [
            [
              {
                "params": [
                  "bytesTransferredInSession"
                ],
                "type": "field"
              },
              {
                "params": [
                  " /"
                ],
                "type": "math"
              }
            ],
            [
              {
                "params": [
                  "driveStatusSince"
                ],
                "type": "field"
              }
            ]
          ],
          "tags": [
            {
              "key": "mountType",
              "operator": "=",
              "value": "ARCHIVE_FOR_USER"
            }
          ]
        }
      ],
      "title": "Sessions average retrieval speeds",
      "tooltip": {
        "show": true,
        "showHistogram": false
      },
      "type": "heatmap",
      "xAxis": {
        "show": true
      },
      "yAxis": {
        "format": "Bps",
        "logBase": 1,
        "min": "0",
        "show": true
      },
      "yBucketBound": "auto"
    },
    {
      "aliasColors": {},
      "bars": false,
      "dashLength": 10,
      "dashes": false,
      "datasource": {
        "type": "influxdb",
        "uid": "000000011"
      },
      "fieldConfig": {
        "defaults": {
          "links": [],
          "unit": "decbytes"
        },
        "overrides": []
      },
      "fill": 1,
      "fillGradient": 0,
      "gridPos": {
        "h": 9,
        "w": 12,
        "x": 0,
        "y": 105
      },
      "hiddenSeries": false,
      "id": 12,
      "legend": {
        "avg": false,
        "current": false,
        "max": false,
        "min": false,
        "show": true,
        "total": false,
        "values": false
      },
      "lines": true,
      "linewidth": 1,
      "links": [],
      "nullPointMode": "connected",
      "options": {
        "alertThreshold": true
      },
      "percentage": false,
      "pluginVersion": "8.5.20",
      "pointradius": 5,
      "points": false,
      "renderer": "flot",
      "seriesOverrides": [],
      "spaceLength": 10,
      "stack": false,
      "steppedLine": false,
      "targets": [
        {
          "alias": "[[tag_host]]: [[tag_driveName]]",
          "groupBy": [
            {
              "params": [
                "$__interval"
              ],
              "type": "time"
            },
            {
              "params": [
                "driveName"
              ],
              "type": "tag"
            },
            {
              "params": [
                "null"
              ],
              "type": "fill"
            }
          ],
          "measurement": "ctaadmin_dr_ls",
          "orderByTime": "ASC",
          "policy": "default",
          "query": "SELECT last(\"BufferCount\") * last(\"BufferSizeBytes\") as Buffer FROM \"ctaadmin_dr_ls\" WHERE $timeFilter AND instance=~/^$instance$/ AND logicalLibrary=~/^$logicalLibrary$/ GROUP BY time($__interval), \"driveName\", \"host\"",
          "rawQuery": true,
          "refId": "A",
          "resultFormat": "time_series",
          "select": [
            [
              {
                "params": [
                  "BufferCount"
                ],
                "type": "field"
              },
              {
                "params": [],
                "type": "last"
              }
            ]
          ],
          "tags": []
        }
      ],
      "thresholds": [],
      "timeRegions": [],
      "title": "Buffer size",
      "tooltip": {
        "shared": true,
        "sort": 1,
        "value_type": "individual"
      },
      "type": "graph",
      "xaxis": {
        "mode": "time",
        "show": true,
        "values": []
      },
      "yaxes": [
        {
          "$$hashKey": "object:199",
          "format": "decbytes",
          "logBase": 1,
          "min": "0",
          "show": true
        },
        {
          "$$hashKey": "object:200",
          "format": "short",
          "logBase": 1,
          "show": true
        }
      ],
      "yaxis": {
        "align": false
      }
    },
    {
      "aliasColors": {},
      "bars": false,
      "dashLength": 10,
      "dashes": false,
      "datasource": {
        "type": "influxdb",
        "uid": "000000011"
      },
      "fieldConfig": {
        "defaults": {
          "links": []
        },
        "overrides": []
      },
      "fill": 5,
      "fillGradient": 0,
      "gridPos": {
        "h": 8,
        "w": 12,
        "x": 12,
        "y": 105
      },
      "hiddenSeries": false,
      "id": 18,
      "interval": "5m",
      "legend": {
        "alignAsTable": false,
        "avg": false,
        "current": true,
        "hideZero": false,
        "max": false,
        "min": false,
        "rightSide": false,
        "show": true,
        "sideWidth": 200,
        "sort": "current",
        "sortDesc": false,
        "total": false,
        "values": true
      },
      "lines": true,
      "linewidth": 1,
      "nullPointMode": "null as zero",
      "options": {
        "alertThreshold": true
      },
      "percentage": false,
      "pluginVersion": "8.5.20",
      "pointradius": 2,
      "points": false,
      "renderer": "flot",
      "seriesOverrides": [
        {
          "$$hashKey": "object:478",
          "alias": "UP",
          "color": "#56A64B"
        },
        {
          "$$hashKey": "object:479",
          "alias": "DOWN",
          "color": "#AD0317"
        },
        {
          "$$hashKey": "object:480",
          "alias": "CLEANING_UP",
          "color": "#8F3BB8"
        },
        {
          "$$hashKey": "object:481",
          "alias": "TRANSFERRING",
          "color": "#5794F2"
        },
        {
          "$$hashKey": "object:482",
          "alias": "MOUNTING",
          "color": "#FADE2A"
        },
        {
          "$$hashKey": "object:483",
          "alias": "UNLOADING",
          "color": "#FA6400"
        }
      ],
      "spaceLength": 10,
      "stack": true,
      "steppedLine": true,
      "targets": [
        {
          "alias": "[[tag_driveStatus]]",
          "datasource": {
            "type": "influxdb",
            "uid": "000000011"
          },
          "groupBy": [
            {
              "params": [
                "$__interval"
              ],
              "type": "time"
            },
            {
              "params": [
                "driveStatus"
              ],
              "type": "tag"
            },
            {
              "params": [
                "0"
              ],
              "type": "fill"
            }
          ],
          "hide": false,
          "measurement": "ctaadmin_dr_ls",
          "orderByTime": "ASC",
          "policy": "default",
          "query": "SELECT count(\"ctaVersion\") FROM \"ctaadmin_dr_ls\" WHERE $timeFilter GROUP BY time($__interval), \"driveStatus\" fill(0)",
          "rawQuery": false,
          "refId": "A",
          "resultFormat": "time_series",
          "select": [
            [
              {
                "params": [
                  "command"
                ],
                "type": "field"
              },
              {
                "params": [],
                "type": "count"
              }
            ]
          ],
          "tags": [
            {
              "key": "instance",
              "operator": "=",
              "value": "ctaproduction"
            }
          ]
        },
        {
          "datasource": {
            "type": "influxdb",
            "uid": "000000011"
          },
          "groupBy": [
            {
              "params": [
                "$__interval"
              ],
              "type": "time"
            },
            {
              "params": [
                "driveStatus"
              ],
              "type": "tag"
            }
          ],
          "hide": true,
          "measurement": "ctaadmin_dr_ls",
          "orderByTime": "ASC",
          "policy": "default",
          "refId": "B",
          "resultFormat": "time_series",
          "select": [
            [
              {
                "params": [
                  "ctaVersion"
                ],
                "type": "field"
              },
              {
                "params": [],
                "type": "count"
              }
            ]
          ],
          "tags": [
            {
              "key": "driveStatus",
              "operator": "=",
              "value": "DOWN"
            },
            {
              "condition": "AND",
              "key": "time",
              "operator": ">",
              "value": "now()-700s"
            }
          ]
        },
        {
          "datasource": {
            "type": "influxdb",
            "uid": "000000011"
          },
          "groupBy": [
            {
              "params": [
                "$__interval"
              ],
              "type": "time"
            },
            {
              "params": [
                "0"
              ],
              "type": "fill"
            }
          ],
          "hide": true,
          "measurement": "ctaadmin_dr_ls",
          "orderByTime": "ASC",
          "policy": "default",
          "query": "SELECT count(distinct(\"drive\")) FROM (SELECT \"ctaVersion\", \"driveName\" AS \"drive\" FROM \"ctaadmin_dr_ls\" WHERE (\"instance\" = 'ctaproduction') AND (\"driveStatus\" = 'DOWN') AND $timeFilter) GROUP BY time(10m) fill(0)",
          "rawQuery": true,
          "refId": "C",
          "resultFormat": "time_series",
          "select": [
            [
              {
                "params": [
                  "ctaVersion"
                ],
                "type": "field"
              },
              {
                "params": [],
                "type": "count"
              }
            ]
          ],
          "tags": [
            {
              "key": "driveStatus",
              "operator": "=",
              "value": "DOWN"
            }
          ]
        }
      ],
      "thresholds": [],
      "timeRegions": [],
      "title": "Drives in ctaproduction instance",
      "tooltip": {
        "shared": true,
        "sort": 2,
        "value_type": "individual"
      },
      "type": "graph",
      "xaxis": {
        "mode": "time",
        "show": true,
        "values": []
      },
      "yaxes": [
        {
          "$$hashKey": "object:520",
          "decimals": -1,
          "format": "short",
          "logBase": 1,
          "min": "0",
          "show": true
        },
        {
          "$$hashKey": "object:521",
          "format": "short",
          "logBase": 1,
          "show": false
        }
      ],
      "yaxis": {
        "align": false
      }
    },
    {
      "datasource": {
        "type": "influxdb",
        "uid": "000000011"
      },
      "fieldConfig": {
        "defaults": {
          "color": {
            "mode": "palette-classic"
          },
          "custom": {
            "axisLabel": "",
            "axisPlacement": "auto",
            "barAlignment": 0,
            "drawStyle": "line",
            "fillOpacity": 10,
            "gradientMode": "none",
            "hideFrom": {
              "legend": false,
              "tooltip": false,
              "viz": false
            },
            "lineInterpolation": "linear",
            "lineStyle": {
              "fill": "solid"
            },
            "lineWidth": 1,
            "pointSize": 5,
            "scaleDistribution": {
              "type": "linear"
            },
            "showPoints": "never",
            "spanNulls": 600000,
            "stacking": {
              "group": "A",
              "mode": "normal"
            },
            "thresholdsStyle": {
              "mode": "off"
            }
          },
          "links": [],
          "mappings": [],
          "min": 0,
          "thresholds": {
            "mode": "absolute",
            "steps": [
              {
                "color": "green"
              },
              {
                "color": "red",
                "value": 80
              }
            ]
          },
          "unit": "short"
        },
        "overrides": []
      },
      "gridPos": {
        "h": 9,
        "w": 12,
        "x": 0,
        "y": 114
      },
      "id": 33,
      "interval": "5m",
      "links": [],
      "options": {
        "legend": {
          "calcs": [
            "lastNotNull"
          ],
          "displayMode": "list",
          "placement": "bottom"
        },
        "tooltip": {
          "mode": "multi",
          "sort": "asc"
        }
      },
      "pluginVersion": "8.4.3",
      "targets": [
        {
          "alias": "ctaVersion: [[tag_ctaVersion]]",
          "datasource": {
            "type": "influxdb",
            "uid": "000000011"
          },
          "groupBy": [
            {
              "params": [
                "$__interval"
              ],
              "type": "time"
            },
            {
              "params": [
                "ctaVersion"
              ],
              "type": "tag"
            }
          ],
          "hide": false,
          "measurement": "ctaadmin_dr_ls",
          "orderByTime": "ASC",
          "policy": "default",
          "refId": "A",
          "resultFormat": "time_series",
          "select": [
            [
              {
                "params": [
                  "command"
                ],
                "type": "field"
              },
              {
                "params": [],
                "type": "count"
              }
            ]
          ],
          "tags": [
            {
              "key": "instance",
              "operator": "=~",
              "value": "/^$instance$/"
            }
          ]
        }
      ],
      "title": "CTA versions in $instance",
      "type": "timeseries"
    }
  ],
  "refresh": "1m",
  "schemaVersion": 36,
  "style": "dark",
  "tags": [],
  "templating": {
    "list": [
      {
        "current": {
          "selected": true,
          "text": [
            "ctaproduction"
          ],
          "value": [
            "ctaproduction"
          ]
        },
        "datasource": {
          "type": "influxdb",
          "uid": "000000011"
        },
        "definition": "SHOW TAG VALUES WITH KEY = \"instance\"",
        "hide": 0,
        "includeAll": true,
        "label": "instance",
        "multi": true,
        "name": "instance",
        "options": [],
        "query": "SHOW TAG VALUES WITH KEY = \"instance\"",
        "refresh": 1,
        "regex": "",
        "skipUrlSync": false,
        "sort": 0,
        "tagValuesQuery": "",
        "tagsQuery": "",
        "type": "query",
        "useTags": false
      },
      {
        "current": {
          "selected": true,
          "text": [
            "All"
          ],
          "value": [
            "$__all"
          ]
        },
        "datasource": {
          "type": "influxdb",
          "uid": "000000011"
        },
        "definition": "SHOW TAG VALUES WITH KEY = \"logicalLibrary\"",
        "hide": 0,
        "includeAll": true,
        "label": "logicalLibrary",
        "multi": true,
        "name": "logicalLibrary",
        "options": [],
        "query": "SHOW TAG VALUES WITH KEY = \"logicalLibrary\"",
        "refresh": 1,
        "regex": "",
        "skipUrlSync": false,
        "sort": 1,
        "tagValuesQuery": "",
        "tagsQuery": "",
        "type": "query",
        "useTags": false
      },
      {
        "current": {
          "selected": true,
          "text": [
            "All"
          ],
          "value": [
            "$__all"
          ]
        },
        "datasource": {
          "type": "influxdb",
          "uid": "000000011"
        },
        "definition": "SHOW TAG VALUES WITH KEY = \"vo\"",
        "hide": 0,
        "includeAll": true,
        "label": "VO",
        "multi": true,
        "name": "VO",
        "options": [],
        "query": "SHOW TAG VALUES WITH KEY = \"vo\"",
        "refresh": 1,
        "regex": "",
        "skipUrlSync": false,
        "sort": 1,
        "tagValuesQuery": "",
        "tagsQuery": "",
        "type": "query",
        "useTags": false
      }
    ]
  },
  "time": {
    "from": "now-24h",
    "to": "now"
  },
  "timepicker": {
    "refresh_intervals": [
      "5s",
      "10s",
      "30s",
      "1m",
      "5m",
      "15m",
      "30m",
      "1h",
      "2h",
      "1d"
    ],
    "time_options": [
      "5m",
      "15m",
      "1h",
      "6h",
      "12h",
      "24h",
      "2d",
      "7d",
      "30d"
    ]
  },
  "timezone": "",
  "title": "driveStatus",
  "uid": "whFCR8A7z",
  "version": 40,
  "weekStart": ""
}
