{
  "type": "array",
  "items": {
    "type": "object",
    "properties": {
      "timestamp": {
        "type": "integer"
      },
      "vo": {
        "type": "string",
        "pattern": "^(?!LHCB|NTOF)([A-Z0-9_]+|nTOF|LHCb)$"
      },
      "mountType": {
        "type": "string",
        "pattern": "^[A-Z][a-z]+(?:[A-Z][a-z]+)*$"
      },
      "instance": {
        "type": "string",
        "pattern": "^[a-z]+$"
      },
      "dataVolume": {
        "type": "integer"
      }
    },
    "required": [
      "timestamp",
      "mountType",
      "vo",
      "instance",
      "dataVolume"
    ]
  }
}